<svg xmlns="http://www.w3.org/2000/svg" width="256" height="256" viewBox="0 0 256 256">
  <g fill="none" fill-rule="evenodd" transform="translate(16 37)">
    <g fill-rule="nonzero">
      <polygon fill="#E53D30" points="36.058 111.019 72.115 0 .053 0" transform="translate(75.065 69.485)"/>
      <path fill="#FF9F15" d="M0.15936254,0.10305456 L35.6006608,0.10305456 C38.8187372,0.106547935 41.6971504,2.17462588 42.6986916,5.26335153 L78.8135002,116.848733 L0.15936254,0.10305456 Z" transform="scale(-1 1) rotate(71.951 -59.996 17.714)"/>
      <path fill="#E53D30" d="M0,69.4439903 L50.4772223,69.4439903 L28.7535324,2.64988163 C27.6415688,-0.767345304 22.7961274,-0.767345304 21.6446376,2.64988163 L0,69.4439903 Z" transform="translate(24.598)"/>
      <path fill="#FF9F15" d="M0.00347445025,116.723998 L35.4325519,116.723998 C38.6506277,116.723998 41.5313667,114.658831 42.5358158,111.571271 L78.7657771,0.012693877 L0.00347445025,116.723998 Z" transform="scale(1 -1) rotate(-72.012 -29.19 -112.464)"/>
      <path fill="#E53D30" d="M0.0930027127,69.4439903 L50.570225,69.4439903 L28.8860613,2.64988163 C27.7740976,-0.767345304 22.9286563,-0.767345304 21.7771665,2.64988163 L0.0930027127,69.4439903 Z" transform="matrix(-1 0 0 1 197.893 0)"/>
      <polygon fill="#FD681C" points="0 111.019 36.066 0 86.581 0" transform="translate(111.246 69.485)"/>
      <polygon fill="#FD681C" points="86.676 111.019 .146 0 50.662 0" transform="translate(24.598 69.485)"/>
    </g>
    <g transform="translate(81.241 86.423)">
      <ellipse cx="30.666" cy="31.363" fill="#C00" stroke="#FFF" stroke-width="3.485" rx="28.924" ry="29.621"/>
      <path fill="#FFF" d="M31.0474332,36.5990434 L26.8667721,52.0747972 C26.7511285,52.5028804 27.0044109,52.943658 27.4324941,53.0593015 C27.746937,53.1442459 28.0815416,53.0308055 28.2794927,52.7721451 L46.707982,28.6918503 C47.1122186,28.163639 47.0117172,27.4077406 46.4835059,27.003504 C46.2733867,26.8427011 46.0161604,26.7555683 45.7515708,26.7555683 L30.559949,26.7555683 C30.1165208,26.7555683 29.7570511,26.3960987 29.7570511,25.9526704 C29.7570511,25.8610863 29.7727204,25.7701773 29.8033807,25.6838779 L36.523464,6.76890544 C36.597689,6.55998486 36.4884966,6.33045002 36.2795761,6.25622502 C36.1175707,6.19866801 35.9368989,6.25066175 35.8302688,6.38552667 L14.1711937,33.7797469 C13.8961752,34.127588 13.9552097,34.6325155 14.3030508,34.907534 C14.4448277,35.0196291 14.6202785,35.0806099 14.8010158,35.0806099 L29.8847634,35.0806099 C30.5499058,35.0806099 31.0891103,35.6198143 31.0891103,36.2849567 C31.0891103,36.3910308 31.0750967,36.4966401 31.0474332,36.5990434 Z"/>
    </g>
  </g>
</svg>
